ShotputApplication
…
Run

Initial values

Qui invece che prendere tutte le osservazioni prendo solo quella mediana

data_med4season = data %>% group_by(ID,SeasonNumber) %>% 
                                    mutate(MedResult = mean(Result)) %>%
                                    select(ID,SeasonNumber,Result, MedResult,t_ji) %>%
                                    distinct(ID,SeasonNumber, .keep_all = TRUE) %>% 
                                    ungroup() %>% arrange(SeasonNumber)

data_med4season

## # A tibble: 500 x 5
##    ID    SeasonNumber Result MedResult   t_ji
##    <fct> <fct>         <dbl>     <dbl>  <dbl>
##  1 1     1            -2.85    -1.96   0.0309
##  2 2     1             1.59     1.57   0.300 
##  3 3     1            -2.36    -1.96   0.402 
##  4 4     1             0.406   -0.0421 0.405 
##  5 5     1             1.82     3.32   0.444 
##  6 6     1            -5.81    -4.69   0.830 
##  7 7     1            -2.02    -2.02   0.366 
##  8 8     1             3.99     4.21   0.774 
##  9 9     1             4.01     4.29   0.222 
## 10 10    1            -5.37    -3.89   0.419 
## # ... with 490 more rows
…
